<?xml version="1.0" encoding="utf-8"?>
<!-- Generator: Adobe Illustrator 26.1.0, SVG Export Plug-In . SVG Version: 6.00 Build 0)  -->
<svg version="1.1" id="Layer_1" xmlns="http://www.w3.org/2000/svg" xmlns:xlink="http://www.w3.org/1999/xlink" x="0px" y="0px"
	 viewBox="0 0 349.2 276" style="enable-background:new 0 0 349.2 276;" xml:space="preserve">
<style type="text/css">
	.st0{fill:#3761ff;}
</style>
<g id="XMLID_289_">
	<path id="XMLID_290_" class="st0" d="M172.1,116l-56.9,12.5l42.4-103.9C137.3,36.1,100.4,51,52.8,43l20,58.4
		c14.9,43.5,37.9,83.5,67.8,118L172.1,116z"/>
	<path id="XMLID_298_" class="st0" d="M239.7,42.4V0L203,93.4l36.8-7l0.4-0.1v2.1L123.4,276l34.7-37.6c5.3,5.3,10.8,10.5,16.4,15.4
		l0,0h0c46.6-41.1,81.7-93.6,101.8-152.4l20-58.4C275.2,46.6,256.1,45.6,239.7,42.4z"/>
</g>
</svg>
